Year;Age;Race;Birth Rate
1970;15-17;All Races;17.1
1970;15-19;All Races;22.4
1970;15-44;All Races;26.4
1970;18-19;All Races;32.9
1970;20-24;All Races;38.4
1970;25-29;All Races;37.0
1970;30-34;All Races;27.1
1970;35-39;All Races;13.6
1970;40-44;All Races;3.5
1975;15-17;All Races;19.3
1975;15-19;All Races;23.9
1975;15-44;All Races;24.5
1975;18-19;All Races;32.5
1975;20-24;All Races;31.2
1975;25-29;All Races;27.5
1975;30-34;All Races;17.9
1975;35-39;All Races;9.1
1975;40-44;All Races;2.6
1980;15-17;All Races;20.6
1980;15-17;Black;68.8
1980;15-17;White;12.0
1980;15-19;All Races;27.6
1980;15-19;Black;87.9
1980;15-19;White;16.5
1980;15-44;All Races;29.4
1980;15-44;Black;81.1
1980;15-44;White;18.1
1980;18-19;All Races;39.0
1980;18-19;Black;118.2
1980;18-19;White;24.1
1980;20-24;All Races;40.9
1980;20-24;Black;112.3
1980;20-24;White;25.1
1980;25-29;All Races;34.0
1980;25-29;Black;81.4
1980;25-29;White;21.5
1980;30-34;All Races;21.1
1980;30-34;Black;46.7
1980;30-34;White;14.1
1980;35-39;All Races;9.7
1980;35-39;Black;19.0
1980;35-39;White;7.1
1980;40-44;All Races;2.6
1980;40-44;Black;5.5
1980;40-44;White;1.8
1981;15-17;All Races;20.9
1981;15-17;Black;65.9
1981;15-17;White;12.6
1981;15-19;All Races;27.9
1981;15-19;Black;85.0
1981;15-19;White;17.2
1981;15-44;All Races;29.5
1981;15-44;Black;79.4
1981;15-44;White;18.6
1981;18-19;All Races;39.0
1981;18-19;Black;114.2
1981;18-19;White;24.6
1981;20-24;All Races;41.1
1981;20-24;Black;110.7
1981;20-24;White;25.8
1981;25-29;All Races;34.5
1981;25-29;Black;83.1
1981;25-29;White;22.3
1981;30-34;All Races;20.8
1981;30-34;Black;45.5
1981;30-34;White;14.2
1981;35-39;All Races;9.8
1981;35-39;Black;19.6
1981;35-39;White;7.2
1981;40-44;All Races;2.6
1981;40-44;Black;5.6
1981;40-44;White;1.9
1982;15-17;All Races;21.5
1982;15-17;Black;66.3
1982;15-17;White;13.1
1982;15-19;All Races;28.7
1982;15-19;Black;85.1
1982;15-19;White;18.0
1982;15-44;All Races;30.0
1982;15-44;Black;77.9
1982;15-44;White;19.3
1982;18-19;All Races;39.6
1982;18-19;Black;112.7
1982;18-19;White;25.3
1982;20-24;All Races;41.5
1982;20-24;Black;109.3
1982;20-24;White;26.5
1982;25-29;All Races;35.1
1982;25-29;Black;82.7
1982;25-29;White;23.1
1982;30-34;All Races;21.9
1982;30-34;Black;44.1
1982;30-34;White;15.3
1982;35-39;All Races;10.0
1982;35-39;Black;19.5
1982;35-39;White;7.4
1982;40-44;All Races;2.7
1982;40-44;Black;5.2
1982;40-44;White;2.1
1983;15-17;All Races;22.0
1983;15-17;Black;66.8
1983;15-17;White;13.6
1983;15-19;All Races;29.5
1983;15-19;Black;85.5
1983;15-19;White;18.7
1983;15-44;All Races;30.3
1983;15-44;Black;76.2
1983;15-44;White;19.8
1983;18-19;All Races;40.7
1983;18-19;Black;111.9
1983;18-19;White;26.4
1983;20-24;All Races;41.8
1983;20-24;Black;107.2
1983;20-24;White;27.1
1983;25-29;All Races;35.5
1983;25-29;Black;79.7
1983;25-29;White;23.8
1983;30-34;All Races;22.4
1983;30-34;Black;43.8
1983;30-34;White;15.9
1983;35-39;All Races;10.2
1983;35-39;Black;19.4
1983;35-39;White;7.8
1983;40-44;All Races;2.6
1983;40-44;Black;4.8
1983;40-44;White;2.0
1984;15-17;All Races;21.9
1984;15-17;Black;66.5
1984;15-17;White;13.7
1984;15-19;All Races;30.0
1984;15-19;Black;86.1
1984;15-19;White;19.3
1984;15-44;All Races;31.0
1984;15-44;Black;75.2
1984;15-44;White;20.6
1984;18-19;All Races;42.5
1984;18-19;Black;113.6
1984;18-19;White;27.9
1984;20-24;All Races;43.0
1984;20-24;Black;107.9
1984;20-24;White;28.5
1984;25-29;All Races;37.1
1984;25-29;Black;77.8
1984;25-29;White;25.5
1984;30-34;All Races;23.3
1984;30-34;Black;43.8
1984;30-34;White;16.8
1984;35-39;All Races;10.9
1984;35-39;Black;19.4
1984;35-39;White;8.4
1984;40-44;All Races;2.5
1984;40-44;Black;4.3
1984;40-44;White;2.0
1985;15-17;All Races;22.4
1985;15-17;Black;66.8
1985;15-17;White;14.5
1985;15-19;All Races;31.4
1985;15-19;Black;87.6
1985;15-19;White;20.8
1985;15-44;All Races;32.8
1985;15-44;Black;77.0
1985;15-44;White;22.5
1985;18-19;All Races;45.9
1985;18-19;Black;117.9
1985;18-19;White;31.2
1985;20-24;All Races;46.5
1985;20-24;Black;113.1
1985;20-24;White;31.7
1985;25-29;All Races;39.9
1985;25-29;Black;79.3
1985;25-29;White;28.5
1985;30-34;All Races;25.2
1985;30-34;Black;47.5
1985;30-34;White;18.4
1985;35-39;All Races;11.6
1985;35-39;Black;20.4
1985;35-39;White;9.0
1985;40-44;All Races;2.5
1985;40-44;Black;4.3
1985;40-44;White;2.0
1986;15-17;All Races;22.8
1986;15-17;Black;67.0
1986;15-17;White;14.9
1986;15-19;All Races;32.3
1986;15-19;Black;88.5
1986;15-19;White;21.8
1986;15-44;All Races;34.2
1986;15-44;Black;79.0
1986;15-44;White;23.9
1986;18-19;All Races;48.0
1986;18-19;Black;121.1
1986;18-19;White;33.5
1986;20-24;All Races;49.3
1986;20-24;Black;118.0
1986;20-24;White;34.2
1986;25-29;All Races;42.2
1986;25-29;Black;84.6
1986;25-29;White;30.5
1986;30-34;All Races;27.2
1986;30-34;Black;50.0
1986;30-34;White;20.1
1986;35-39;All Races;12.2
1986;35-39;Black;20.6
1986;35-39;White;9.7
1986;40-44;All Races;2.7
1986;40-44;Black;4.4
1986;40-44;White;2.2
1987;15-17;All Races;24.5
1987;15-17;Black;69.9
1987;15-17;White;16.2
1987;15-19;All Races;33.8
1987;15-19;Black;90.9
1987;15-19;White;23.2
1987;15-44;All Races;36.0
1987;15-44;Black;82.6
1987;15-44;White;25.3
1987;18-19;All Races;48.9
1987;18-19;Black;123.0
1987;18-19;White;34.5
1987;20-24;All Races;52.6
1987;20-24;Black;126.1
1987;20-24;White;36.6
1987;25-29;All Races;44.5
1987;25-29;Black;91.6
1987;25-29;White;32.0
1987;30-34;All Races;29.6
1987;30-34;Black;53.1
1987;30-34;White;22.3
1987;35-39;All Races;13.5
1987;35-39;Black;22.4
1987;35-39;White;10.7
1987;40-44;All Races;2.9
1987;40-44;Black;4.7
1987;40-44;White;2.4
1988;15-17;All Races;26.4
1988;15-17;Black;73.5
1988;15-17;White;17.6
1988;15-19;All Races;36.4
1988;15-19;Black;96.1
1988;15-19;White;25.3
1988;15-44;All Races;38.5
1988;15-44;Black;86.5
1988;15-44;White;27.4
1988;18-19;All Races;51.5
1988;18-19;Black;130.5
1988;18-19;White;36.8
1988;20-24;All Races;56.0
1988;20-24;Black;133.6
1988;20-24;White;39.2
1988;25-29;All Races;48.5
1988;25-29;Black;97.2
1988;25-29;White;35.4
1988;30-34;All Races;32.0
1988;30-34;Black;57.4
1988;30-34;White;24.2
1988;35-39;All Races;15.0
1988;35-39;Black;24.1
1988;35-39;White;12.1
1988;40-44;All Races;3.2
1988;40-44;Black;5.0
1988;40-44;White;2.7
1989;15-17;All Races;28.7
1989;15-17;Black;78.9
1989;15-17;White;19.3
1989;15-19;All Races;40.1
1989;15-19;Black;104.5
1989;15-19;White;28.0
1989;15-44;All Races;41.6
1989;15-44;Black;90.7
1989;15-44;White;30.2
1989;18-19;All Races;56.0
1989;18-19;Black;140.9
1989;18-19;White;40.2
1989;20-24;All Races;61.2
1989;20-24;Black;142.4
1989;20-24;White;43.8
1989;25-29;All Races;52.8
1989;25-29;Black;102.9
1989;25-29;White;39.1
1989;30-34;All Races;34.9
1989;30-34;Black;60.5
1989;30-34;White;26.8
1989;35-39;All Races;16.0
1989;35-39;Black;24.9
1989;35-39;White;13.1
1989;40-44;All Races;3.4
1989;40-44;Black;5.0
1989;40-44;White;2.9
1990;15-17;All Races;29.6
1990;15-17;Black;78.8
1990;15-17;Hispanic;45.9
1990;15-17;Non-Hispanic white;16.2
1990;15-17;White;20.4
1990;15-19;All Races;42.5
1990;15-19;Black;106.0
1990;15-19;Hispanic;65.9
1990;15-19;Non-Hispanic white;25.0
1990;15-19;White;30.6
1990;15-44;All Races;43.8
1990;15-44;Black;90.5
1990;15-44;Hispanic;89.6
1990;15-44;Non-Hispanic white;24.4
1990;15-44;White;32.9
1990;18-19;All Races;60.7
1990;18-19;Black;143.7
1990;18-19;Hispanic;98.9
1990;18-19;Non-Hispanic white;37.0
1990;18-19;White;44.9
1990;20-24;All Races;65.1
1990;20-24;Black;144.8
1990;20-24;Hispanic;129.8
1990;20-24;Non-Hispanic white;36.4
1990;20-24;White;48.2
1990;25-29;All Races;56.0
1990;25-29;Black;105.3
1990;25-29;Hispanic;131.7
1990;25-29;Non-Hispanic white;30.3
1990;25-29;White;43.0
1990;30-34;All Races;37.6
1990;30-34;Black;61.5
1990;30-34;Hispanic;88.1
1990;30-34;Non-Hispanic white;20.5
1990;30-34;White;29.9
1990;35-39;All Races;17.3
1990;35-39;Black;25.5
1990;35-39;Hispanic;50.8
1990;35-39;Non-Hispanic white;6.1
1990;35-39;White;14.5
1990;40-44;All Races;3.6
1990;40-44;Black;5.1
1990;40-44;Hispanic;13.7
1990;40-44;Non-Hispanic white;
1990;40-44;White;3.2
1991;15-17;All Races;30.8
1991;15-17;Black;79.9
1991;15-17;Hispanic;49.5
1991;15-17;Non-Hispanic white;
1991;15-17;White;21.7
1991;15-19;All Races;44.6
1991;15-19;Black;107.8
1991;15-19;Hispanic;71.0
1991;15-19;Non-Hispanic white;
1991;15-19;White;32.7
1991;15-44;All Races;45.0
1991;15-44;Black;89.0
1991;15-44;Hispanic;92.5
1991;15-44;Non-Hispanic white;
1991;15-44;White;34.5
1991;18-19;All Races;65.4
1991;18-19;Black;147.7
1991;18-19;Hispanic;107.5
1991;18-19;Non-Hispanic white;
1991;18-19;White;49.4
1991;20-24;All Races;67.8
1991;20-24;Black;146.4
1991;20-24;Hispanic;134.2
1991;20-24;Non-Hispanic white;
1991;20-24;White;51.4
1991;25-29;All Races;56.0
1991;25-29;Black;100.0
1991;25-29;Hispanic;135.1
1991;25-29;Non-Hispanic white;
1991;25-29;White;44.3
1991;30-34;All Races;37.9
1991;30-34;Black;59.8
1991;30-34;Hispanic;88.2
1991;30-34;Non-Hispanic white;
1991;30-34;White;30.9
1991;35-39;All Races;17.9
1991;35-39;Black;25.5
1991;35-39;Hispanic;47.6
1991;35-39;Non-Hispanic white;
1991;35-39;White;15.2
1991;40-44;All Races;3.8
1991;40-44;Black;5.4
1991;40-44;Hispanic;14.1
1991;40-44;Non-Hispanic white;
1991;40-44;White;3.2
1992;15-17;All Races;30.2
1992;15-17;Black;77.2
1992;15-17;Hispanic;49.2
1992;15-17;Non-Hispanic white;
1992;15-17;White;21.4
1992;15-19;All Races;44.2
1992;15-19;Black;104.8
1992;15-19;Hispanic;70.3
1992;15-19;Non-Hispanic white;
1992;15-19;White;32.7
1992;15-44;All Races;44.9
1992;15-44;Black;85.7
1992;15-44;Hispanic;92.8
1992;15-44;Non-Hispanic white;
1992;15-44;White;35.0
1992;18-19;All Races;66.7
1992;18-19;Black;146.4
1992;18-19;Hispanic;106.6
1992;18-19;Non-Hispanic white;
1992;18-19;White;51.2
1992;20-24;All Races;67.9
1992;20-24;Black;142.6
1992;20-24;Hispanic;138.2
1992;20-24;Non-Hispanic white;
1992;20-24;White;52.4
1992;25-29;All Races;55.6
1992;25-29;Black;96.8
1992;25-29;Hispanic;133.4
1992;25-29;Non-Hispanic white;
1992;25-29;White;44.8
1992;30-34;All Races;37.6
1992;30-34;Black;57.3
1992;30-34;Hispanic;89.9
1992;30-34;Non-Hispanic white;
1992;30-34;White;31.3
1992;35-39;All Races;18.8
1992;35-39;Black;25.6
1992;35-39;Hispanic;47.8
1992;35-39;Non-Hispanic white;
1992;35-39;White;16.1
1992;40-44;All Races;4.1
1992;40-44;Black;5.4
1992;40-44;Hispanic;14.6
1992;40-44;Non-Hispanic white;
1992;40-44;White;3.6
1993;15-17;All Races;30.3
1993;15-17;Black;75.9
1993;15-17;Hispanic;49.6
1993;15-17;Non-Hispanic white;
1993;15-17;White;21.9
1993;15-19;All Races;44.0
1993;15-19;Black;101.2
1993;15-19;Hispanic;71.1
1993;15-19;Non-Hispanic white;
1993;15-19;White;33.3
1993;15-44;All Races;44.8
1993;15-44;Black;83.0
1993;15-44;Hispanic;91.4
1993;15-44;Non-Hispanic white;
1993;15-44;White;35.6
1993;18-19;All Races;66.2
1993;18-19;Black;140.0
1993;18-19;Hispanic;108.8
1993;18-19;Non-Hispanic white;
1993;18-19;White;52.0
1993;20-24;All Races;68.5
1993;20-24;Black;139.9
1993;20-24;Hispanic;134.3
1993;20-24;Non-Hispanic white;
1993;20-24;White;53.8
1993;25-29;All Races;55.9
1993;25-29;Black;92.8
1993;25-29;Hispanic;130.4
1993;25-29;Non-Hispanic white;
1993;25-29;White;46.0
1993;30-34;All Races;38.0
1993;30-34;Black;56.7
1993;30-34;Hispanic;87.8
1993;30-34;Non-Hispanic white;
1993;30-34;White;31.9
1993;35-39;All Races;18.9
1993;35-39;Black;25.7
1993;35-39;Hispanic;47.1
1993;35-39;Non-Hispanic white;
1993;35-39;White;16.3
1993;40-44;All Races;4.4
1993;40-44;Black;5.8
1993;40-44;Hispanic;14.1
1993;40-44;Non-Hispanic white;
1993;40-44;White;3.9
1994;15-17;All Races;31.7
1994;15-17;Black;73.9
1994;15-17;Hispanic;55.7
1994;15-17;Non-Hispanic white;17.9
1994;15-17;White;23.9
1994;15-19;All Races;45.8
1994;15-19;Black;99.3
1994;15-19;Hispanic;77.7
1994;15-19;Non-Hispanic white;28.1
1994;15-19;White;35.8
1994;15-44;All Races;46.2
1994;15-44;Black;80.8
1994;15-44;Hispanic;95.8
1994;15-44;Non-Hispanic white;28.4
1994;15-44;White;37.8
1994;18-19;All Races;69.1
1994;18-19;Black;139.6
1994;18-19;Hispanic;115.4
1994;18-19;Non-Hispanic white;45.0
1994;18-19;White;55.8
1994;20-24;All Races;70.9
1994;20-24;Black;135.2
1994;20-24;Hispanic;144.5
1994;20-24;Non-Hispanic white;43.8
1994;20-24;White;57.5
1994;25-29;All Races;57.4
1994;25-29;Black;91.3
1994;25-29;Hispanic;131.7
1994;25-29;Non-Hispanic white;34.7
1994;25-29;White;48.6
1994;30-34;All Races;39.6
1994;30-34;Black;56.5
1994;30-34;Hispanic;91.2
1994;30-34;Non-Hispanic white;24.6
1994;30-34;White;33.8
1994;35-39;All Races;19.7
1994;35-39;Black;26.0
1994;35-39;Hispanic;47.4
1994;35-39;Non-Hispanic white;12.8
1994;35-39;White;17.2
1994;40-44;All Races;4.7
1994;40-44;Black;5.9
1994;40-44;Hispanic;13.9
1994;40-44;Non-Hispanic white;3.1
1994;40-44;White;4.3
1995;15-17;All Races;30.1
1995;15-17;Black;67.4
1995;15-17;Hispanic;52.8
1995;15-17;Non-Hispanic white;17.6
1995;15-17;White;23.3
1995;15-19;All Races;43.8
1995;15-19;Black;91.2
1995;15-19;Hispanic;73.2
1995;15-19;Non-Hispanic white;27.7
1995;15-19;White;35.0
1995;15-44;All Races;44.3
1995;15-44;Black;74.5
1995;15-44;Hispanic;88.8
1995;15-44;Non-Hispanic white;28.1
1995;15-44;White;37.0
1995;18-19;All Races;66.5
1995;18-19;Black;129.2
1995;18-19;Hispanic;108.6
1995;18-19;Non-Hispanic white;44.6
1995;18-19;White;54.7
1995;20-24;All Races;68.7
1995;20-24;Black;124.6
1995;20-24;Hispanic;135.8
1995;20-24;Non-Hispanic white;43.9
1995;20-24;White;57.2
1995;25-29;All Races;54.3
1995;25-29;Black;82.3
1995;25-29;Hispanic;122.3
1995;25-29;Non-Hispanic white;34.4
1995;25-29;White;47.4
1995;30-34;All Races;38.9
1995;30-34;Black;53.3
1995;30-34;Hispanic;84.1
1995;30-34;Non-Hispanic white;25.1
1995;30-34;White;33.7
1995;35-39;All Races;19.3
1995;35-39;Black;25.3
1995;35-39;Hispanic;42.2
1995;35-39;Non-Hispanic white;12.9
1995;35-39;White;16.8
1995;40-44;All Races;4.7
1995;40-44;Black;6.0
1995;40-44;Hispanic;12.1
1995;40-44;Non-Hispanic white;3.2
1995;40-44;White;4.2
1996;15-17;All Races;28.5
1996;15-17;Black;62.6
1996;15-17;Hispanic;49.7
1996;15-17;Non-Hispanic white;16.9
1996;15-17;White;22.3
1996;15-19;All Races;42.2
1996;15-19;Black;87.5
1996;15-19;Hispanic;69.3
1996;15-19;Non-Hispanic white;27.0
1996;15-19;White;34.0
1996;15-44;All Races;43.8
1996;15-44;Black;72.8
1996;15-44;Hispanic;86.2
1996;15-44;Non-Hispanic white;28.2
1996;15-44;White;37.0
1996;18-19;All Races;64.9
1996;18-19;Black;127.2
1996;18-19;Hispanic;102.3
1996;18-19;Non-Hispanic white;43.9
1996;18-19;White;53.5
1996;20-24;All Races;68.9
1996;20-24;Black;122.6
1996;20-24;Hispanic;131.6
1996;20-24;Non-Hispanic white;44.5
1996;20-24;White;57.9
1996;25-29;All Races;54.5
1996;25-29;Black;81.2
1996;25-29;Hispanic;122.0
1996;25-29;Non-Hispanic white;35.0
1996;25-29;White;48.1
1996;30-34;All Races;40.2
1996;30-34;Black;53.4
1996;30-34;Hispanic;84.6
1996;30-34;Non-Hispanic white;26.4
1996;30-34;White;35.4
1996;35-39;All Races;19.9
1996;35-39;Black;25.2
1996;35-39;Hispanic;41.2
1996;35-39;Non-Hispanic white;13.8
1996;35-39;White;17.7
1996;40-44;All Races;4.8
1996;40-44;Black;6.1
1996;40-44;Hispanic;12.3
1996;40-44;Non-Hispanic white;3.3
1996;40-44;White;4.3
1997;15-17;All Races;27.7
1997;15-17;Black;59.0
1997;15-17;Hispanic;50.7
1997;15-17;Non-Hispanic white;16.2
1997;15-17;White;22.0
1997;15-19;All Races;41.4
1997;15-19;Black;84.5
1997;15-19;Hispanic;69.2
1997;15-19;Non-Hispanic white;26.4
1997;15-19;White;33.6
1997;15-44;All Races;42.9
1997;15-44;Black;71.5
1997;15-44;Hispanic;83.2
1997;15-44;Non-Hispanic white;27.5
1997;15-44;White;36.3
1997;18-19;All Races;63.9
1997;18-19;Black;124.8
1997;18-19;Hispanic;100.6
1997;18-19;Non-Hispanic white;43.3
1997;18-19;White;52.9
1997;20-24;All Races;68.9
1997;20-24;Black;124.2
1997;20-24;Hispanic;122.8
1997;20-24;Non-Hispanic white;44.8
1997;20-24;White;57.9
1997;25-29;All Races;53.4
1997;25-29;Black;81.4
1997;25-29;Hispanic;114.8
1997;25-29;Non-Hispanic white;34.4
1997;25-29;White;47.0
1997;30-34;All Races;37.9
1997;30-34;Black;51.0
1997;30-34;Hispanic;78.8
1997;30-34;Non-Hispanic white;24.9
1997;30-34;White;33.6
1997;35-39;All Races;18.7
1997;35-39;Black;24.3
1997;35-39;Hispanic;40.5
1997;35-39;Non-Hispanic white;12.7
1997;35-39;White;16.6
1997;40-44;All Races;4.6
1997;40-44;Black;6.5
1997;40-44;Hispanic;12.1
1997;40-44;Non-Hispanic white;2.9
1997;40-44;White;3.9
1998;15-17;All Races;26.5
1998;15-17;Black;55.0
1998;15-17;Hispanic;49.8
1998;15-17;Non-Hispanic white;15.5
1998;15-17;White;21.5
1998;15-19;All Races;40.9
1998;15-19;Black;81.5
1998;15-19;Hispanic;69.3
1998;15-19;Non-Hispanic white;26.2
1998;15-19;White;33.6
1998;15-44;All Races;43.3
1998;15-44;Black;71.6
1998;15-44;Hispanic;82.8
1998;15-44;Non-Hispanic white;27.9
1998;15-44;White;36.9
1998;18-19;All Races;63.6
1998;18-19;Black;121.5
1998;18-19;Hispanic;101.2
1998;18-19;Non-Hispanic white;43.1
1998;18-19;White;53.1
1998;20-24;All Races;70.4
1998;20-24;Black;127.8
1998;20-24;Hispanic;120.6
1998;20-24;Non-Hispanic white;46.3
1998;20-24;White;59.5
1998;25-29;All Races;55.4
1998;25-29;Black;86.5
1998;25-29;Hispanic;115.9
1998;25-29;Non-Hispanic white;35.4
1998;25-29;White;48.6
1998;30-34;All Races;38.1
1998;30-34;Black;50.5
1998;30-34;Hispanic;78.2
1998;30-34;Non-Hispanic white;25.0
1998;30-34;White;34.1
1998;35-39;All Races;18.7
1998;35-39;Black;24.3
1998;35-39;Hispanic;38.8
1998;35-39;Non-Hispanic white;13.1
1998;35-39;White;16.9
1998;40-44;All Races;4.6
1998;40-44;Black;6.0
1998;40-44;Hispanic;12.0
1998;40-44;Non-Hispanic white;3.1
1998;40-44;White;4.1
1999;15-17;All Races;25.0
1999;15-17;Black;50.0
1999;15-17;Hispanic;48.7
1999;15-17;Non-Hispanic white;14.6
1999;15-17;White;20.6
1999;15-19;All Races;39.7
1999;15-19;Black;76.5
1999;15-19;Hispanic;68.6
1999;15-19;Non-Hispanic white;25.6
1999;15-19;White;33.2
1999;15-44;All Races;43.3
1999;15-44;Black;69.7
1999;15-44;Hispanic;84.9
1999;15-44;Non-Hispanic white;27.9
1999;15-44;White;37.4
1999;18-19;All Races;62.3
1999;18-19;Black;115.8
1999;18-19;Hispanic;99.9
1999;18-19;Non-Hispanic white;42.7
1999;18-19;White;52.9
1999;20-24;All Races;70.8
1999;20-24;Black;126.8
1999;20-24;Hispanic;126.1
1999;20-24;Non-Hispanic white;46.3
1999;20-24;White;60.2
1999;25-29;All Races;56.9
1999;25-29;Black;85.5
1999;25-29;Hispanic;119.6
1999;25-29;Non-Hispanic white;36.2
1999;25-29;White;50.8
1999;30-34;All Races;38.1
1999;30-34;Black;49.0
1999;30-34;Hispanic;84.2
1999;30-34;Non-Hispanic white;24.8
1999;30-34;White;34.9
1999;35-39;All Races;19.0
1999;35-39;Black;24.2
1999;35-39;Hispanic;42.4
1999;35-39;Non-Hispanic white;13.0
1999;35-39;White;17.4
1999;40-44;All Races;4.6
1999;40-44;Black;5.8
1999;40-44;Hispanic;11.2
1999;40-44;Non-Hispanic white;3.1
1999;40-44;White;4.1
2000;15-17;All Races;23.9
2000;15-17;Asian or Pacific Islander;9.6
2000;15-17;Black;48.3
2000;15-17;Hispanic;47.0
2000;15-17;Non-Hispanic white;13.6
2000;15-17;White;19.7
2000;15-19;All Races;39.0
2000;15-19;Asian or Pacific Islander;15.2
2000;15-19;Black;75.0
2000;15-19;Hispanic;68.5
2000;15-19;Non-Hispanic white;24.7
2000;15-19;White;32.7
2000;15-44;All Races;44.1
2000;15-44;Asian or Pacific Islander;20.9
2000;15-44;Black;70.5
2000;15-44;Hispanic;87.2
2000;15-44;Non-Hispanic white;28.0
2000;15-44;White;38.2
2000;18-19;All Races;62.2
2000;18-19;Asian or Pacific Islander;23.2
2000;18-19;Black;115.0
2000;18-19;Hispanic;102.2
2000;18-19;Non-Hispanic white;42.1
2000;18-19;White;53.1
2000;20-24;All Races;72.2
2000;20-24;Asian or Pacific Islander;24.2
2000;20-24;Black;129.0
2000;20-24;Hispanic;130.5
2000;20-24;Non-Hispanic white;47.0
2000;20-24;White;61.7
2000;25-29;All Races;58.5
2000;25-29;Asian or Pacific Islander;25.4
2000;25-29;Black;85.9
2000;25-29;Hispanic;121.6
2000;25-29;Non-Hispanic white;36.9
2000;25-29;White;52.9
2000;30-34;All Races;39.3
2000;30-34;Asian or Pacific Islander;29.7
2000;30-34;Black;50.2
2000;30-34;Hispanic;89.4
2000;30-34;Non-Hispanic white;24.8
2000;30-34;White;35.9
2000;35-39;All Races;19.7
2000;35-39;Asian or Pacific Islander;18.4
2000;35-39;Black;25.4
2000;35-39;Hispanic;46.1
2000;35-39;Non-Hispanic white;12.9
2000;35-39;White;17.9
2000;40-44;All Races;5.0
2000;40-44;Asian or Pacific Islander;6.9
2000;40-44;Black;6.3
2000;40-44;Hispanic;12.2
2000;40-44;Non-Hispanic white;3.3
2000;40-44;White;4.5
2001;15-17;All Races;21.8
2001;15-17;Asian or Pacific Islander;8.5
2001;15-17;Black;43.5
2001;15-17;Hispanic;43.4
2001;15-17;Non-Hispanic white;12.1
2001;15-17;White;18.1
2001;15-19;All Races;36.8
2001;15-19;Asian or Pacific Islander;14.2
2001;15-19;Black;69.4
2001;15-19;Hispanic;65.5
2001;15-19;Non-Hispanic white;23.1
2001;15-19;White;31.2
2001;15-44;All Races;43.7
2001;15-44;Asian or Pacific Islander;20.5
2001;15-44;Black;68.0
2001;15-44;Hispanic;86.8
2001;15-44;Non-Hispanic white;27.8
2001;15-44;White;38.4
2001;18-19;All Races;60.2
2001;18-19;Asian or Pacific Islander;22.4
2001;18-19;Black;109.1
2001;18-19;Hispanic;101.1
2001;18-19;Non-Hispanic white;40.3
2001;18-19;White;51.9
2001;20-24;All Races;70.8
2001;20-24;Asian or Pacific Islander;23.9
2001;20-24;Black;122.5
2001;20-24;Hispanic;129.8
2001;20-24;Non-Hispanic white;46.4
2001;20-24;White;61.5
2001;25-29;All Races;59.6
2001;25-29;Asian or Pacific Islander;25.7
2001;25-29;Black;84.4
2001;25-29;Hispanic;121.0
2001;25-29;Non-Hispanic white;37.8
2001;25-29;White;54.9
2001;30-34;All Races;40.3
2001;30-34;Asian or Pacific Islander;28.7
2001;30-34;Black;51.2
2001;30-34;Hispanic;91.4
2001;30-34;Non-Hispanic white;25.4
2001;30-34;White;37.2
2001;35-39;All Races;20.4
2001;35-39;Asian or Pacific Islander;19.5
2001;35-39;Black;25.4
2001;35-39;Hispanic;49.6
2001;35-39;Non-Hispanic white;13.2
2001;35-39;White;18.6
2001;40-44;All Races;5.3
2001;40-44;Asian or Pacific Islander;6.3
2001;40-44;Black;6.3
2001;40-44;Hispanic;12.2
2001;40-44;Non-Hispanic white;3.6
2001;40-44;White;4.9
2002;15-17;All Races;20.7
2002;15-17;Asian or Pacific Islander;7.3
2002;15-17;Black;39.4
2002;15-17;Hispanic;41.9
2002;15-17;Non-Hispanic white;11.4
2002;15-17;White;17.5
2002;15-19;All Races;35.1
2002;15-19;Asian or Pacific Islander;13.0
2002;15-19;Black;64.0
2002;15-19;Hispanic;63.9
2002;15-19;Non-Hispanic white;22.1
2002;15-19;White;30.3
2002;15-44;All Races;43.6
2002;15-44;Asian or Pacific Islander;20.6
2002;15-44;Black;66.1
2002;15-44;Hispanic;87.0
2002;15-44;Non-Hispanic white;27.9
2002;15-44;White;39.0
2002;18-19;All Races;58.1
2002;18-19;Asian or Pacific Islander;21.0
2002;18-19;Black;102.8
2002;18-19;Hispanic;100.7
2002;18-19;Non-Hispanic white;38.8
2002;18-19;White;50.8
2002;20-24;All Races;70.0
2002;20-24;Asian or Pacific Islander;24.4
2002;20-24;Black;119.0
2002;20-24;Hispanic;127.2
2002;20-24;Non-Hispanic white;46.3
2002;20-24;White;61.6
2002;25-29;All Races;62.0
2002;25-29;Asian or Pacific Islander;26.7
2002;25-29;Black;86.3
2002;25-29;Hispanic;125.1
2002;25-29;Non-Hispanic white;38.9
2002;25-29;White;57.5
2002;30-34;All Races;41.3
2002;30-34;Asian or Pacific Islander;29.4
2002;30-34;Black;50.2
2002;30-34;Hispanic;91.0
2002;30-34;Non-Hispanic white;26.2
2002;30-34;White;38.8
2002;35-39;All Races;20.9
2002;35-39;Asian or Pacific Islander;19.1
2002;35-39;Black;24.9
2002;35-39;Hispanic;52.4
2002;35-39;Non-Hispanic white;13.6
2002;35-39;White;19.5
2002;40-44;All Races;5.4
2002;40-44;Asian or Pacific Islander;6.9
2002;40-44;Black;6.3
2002;40-44;Hispanic;12.8
2002;40-44;Non-Hispanic white;3.7
2002;40-44;White;5.1
2003;15-17;All Races;20.1
2003;15-17;Asian or Pacific Islander;7.1
2003;15-17;Black;37.4
2003;15-17;Hispanic;41.1
2003;15-17;Non-Hispanic white;11.0
2003;15-17;White;17.1
2003;15-19;All Races;34.3
2003;15-19;Asian or Pacific Islander;12.3
2003;15-19;Black;61.0
2003;15-19;Hispanic;63.5
2003;15-19;Non-Hispanic white;21.5
2003;15-19;White;29.9
2003;15-44;All Races;44.7
2003;15-44;Asian or Pacific Islander;21.1
2003;15-44;Black;65.9
2003;15-44;Hispanic;89.9
2003;15-44;Non-Hispanic white;28.8
2003;15-44;White;40.5
2003;18-19;All Races;56.6
2003;18-19;Asian or Pacific Islander;19.6
2003;18-19;Black;98.0
2003;18-19;Hispanic;101.2
2003;18-19;Non-Hispanic white;37.8
2003;18-19;White;50.0
2003;20-24;All Races;71.0
2003;20-24;Asian or Pacific Islander;24.2
2003;20-24;Black;117.8
2003;20-24;Hispanic;130.2
2003;20-24;Non-Hispanic white;47.6
2003;20-24;White;63.2
2003;25-29;All Races;66.2
2003;25-29;Asian or Pacific Islander;29.0
2003;25-29;Black;91.3
2003;25-29;Hispanic;135.6
2003;25-29;Non-Hispanic white;41.5
2003;25-29;White;61.7
2003;30-34;All Races;44.2
2003;30-34;Asian or Pacific Islander;31.8
2003;30-34;Black;51.2
2003;30-34;Hispanic;98.7
2003;30-34;Non-Hispanic white;28.0
2003;30-34;White;42.3
2003;35-39;All Races;22.3
2003;35-39;Asian or Pacific Islander;19.8
2003;35-39;Black;25.2
2003;35-39;Hispanic;54.0
2003;35-39;Non-Hispanic white;14.8
2003;35-39;White;21.3
2003;40-44;All Races;5.8
2003;40-44;Asian or Pacific Islander;7.9
2003;40-44;Black;6.5
2003;40-44;Hispanic;13.2
2003;40-44;Non-Hispanic white;4.1
2003;40-44;White;5.5
2004;15-17;All Races;19.9
2004;15-17;Asian or Pacific Islander;7.3
2004;15-17;Black;36.1
2004;15-17;Hispanic;41.2
2004;15-17;Non-Hispanic white;10.7
2004;15-17;White;17.0
2004;15-19;All Races;34.2
2004;15-19;Asian or Pacific Islander;12.3
2004;15-19;Black;60.1
2004;15-19;Hispanic;64.2
2004;15-19;Non-Hispanic white;21.3
2004;15-19;White;29.9
2004;15-44;All Races;46.0
2004;15-44;Asian or Pacific Islander;22.1
2004;15-44;Black;66.8
2004;15-44;Hispanic;92.7
2004;15-44;Non-Hispanic white;29.6
2004;15-44;White;41.8
2004;18-19;All Races;56.6
2004;18-19;Asian or Pacific Islander;19.4
2004;18-19;Black;98.0
2004;18-19;Hispanic;102.9
2004;18-19;Non-Hispanic white;37.4
2004;18-19;White;49.9
2004;20-24;All Races;72.3
2004;20-24;Asian or Pacific Islander;24.8
2004;20-24;Black;119.6
2004;20-24;Hispanic;133.4
2004;20-24;Non-Hispanic white;48.6
2004;20-24;White;64.5
2004;25-29;All Races;69.1
2004;25-29;Asian or Pacific Islander;30.7
2004;25-29;Black;92.5
2004;25-29;Hispanic;142.5
2004;25-29;Non-Hispanic white;44.2
2004;25-29;White;65.0
2004;30-34;All Races;47.3
2004;30-34;Asian or Pacific Islander;35.8
2004;30-34;Black;52.0
2004;30-34;Hispanic;108.8
2004;30-34;Non-Hispanic white;30.0
2004;30-34;White;46.2
2004;35-39;All Races;23.5
2004;35-39;Asian or Pacific Islander;20.7
2004;35-39;Black;25.7
2004;35-39;Hispanic;56.0
2004;35-39;Non-Hispanic white;15.7
2004;35-39;White;22.8
2004;40-44;All Races;6.0
2004;40-44;Asian or Pacific Islander;8.6
2004;40-44;Black;6.8
2004;40-44;Hispanic;13.7
2004;40-44;Non-Hispanic white;4.2
2004;40-44;White;5.6
2005;15-17;All Races;19.4
2005;15-17;Asian or Pacific Islander;6.8
2005;15-17;Black;34.4
2005;15-17;Hispanic;40.3
2005;15-17;Non-Hispanic white;10.3
2005;15-17;White;16.7
2005;15-19;All Races;33.9
2005;15-19;Asian or Pacific Islander;11.9
2005;15-19;Black;58.7
2005;15-19;Hispanic;63.7
2005;15-19;Non-Hispanic white;20.9
2005;15-19;White;29.7
2005;15-44;All Races;47.2
2005;15-44;Asian or Pacific Islander;22.8
2005;15-44;Black;67.2
2005;15-44;Hispanic;96.2
2005;15-44;Non-Hispanic white;30.4
2005;15-44;White;43.2
2005;18-19;All Races;57.0
2005;18-19;Asian or Pacific Islander;19.3
2005;18-19;Black;97.9
2005;18-19;Hispanic;103.9
2005;18-19;Non-Hispanic white;37.4
2005;18-19;White;50.3
2005;20-24;All Races;74.5
2005;20-24;Asian or Pacific Islander;25.8
2005;20-24;Black;120.4
2005;20-24;Hispanic;142.5
2005;20-24;Non-Hispanic white;49.9
2005;20-24;White;67.0
2005;25-29;All Races;71.5
2005;25-29;Asian or Pacific Islander;31.4
2005;25-29;Black;94.7
2005;25-29;Hispanic;151.2
2005;25-29;Non-Hispanic white;46.0
2005;25-29;White;67.7
2005;30-34;All Races;50.4
2005;30-34;Asian or Pacific Islander;36.8
2005;30-34;Black;53.9
2005;30-34;Hispanic;116.7
2005;30-34;Non-Hispanic white;31.7
2005;30-34;White;49.8
2005;35-39;All Races;24.5
2005;35-39;Asian or Pacific Islander;24.6
2005;35-39;Black;25.9
2005;35-39;Hispanic;58.1
2005;35-39;Non-Hispanic white;16.2
2005;35-39;White;23.9
2005;40-44;All Races;6.2
2005;40-44;Asian or Pacific Islander;9.3
2005;40-44;Black;7.1
2005;40-44;Hispanic;14.1
2005;40-44;Non-Hispanic white;4.3
2005;40-44;White;5.9
2006;15-17;All Races;20.1
2006;15-17;Asian or Pacific Islander;7.3
2006;15-17;Black;35.4
2006;15-17;Hispanic;40.5
2006;15-17;Non-Hispanic white;10.7
2006;15-17;White;17.3
2006;15-19;All Races;35.5
2006;15-19;Asian or Pacific Islander;12.0
2006;15-19;Black;61.1
2006;15-19;Hispanic;65.9
2006;15-19;Non-Hispanic white;21.6
2006;15-19;White;31.1
2006;15-44;All Races;50.3
2006;15-44;Asian or Pacific Islander;23.4
2006;15-44;Black;70.7
2006;15-44;Hispanic;101.5
2006;15-44;Non-Hispanic white;32.4
2006;15-44;White;46.4
2006;18-19;All Races;60.3
2006;18-19;Asian or Pacific Islander;18.9
2006;18-19;Black;103.3
2006;18-19;Hispanic;110.2
2006;18-19;Non-Hispanic white;38.9
2006;18-19;White;53.3
2006;20-24;All Races;79.1
2006;20-24;Asian or Pacific Islander;26.8
2006;20-24;Black;125.5
2006;20-24;Hispanic;155.1
2006;20-24;Non-Hispanic white;52.6
2006;20-24;White;71.7
2006;25-29;All Races;75.4
2006;25-29;Asian or Pacific Islander;30.5
2006;25-29;Black;98.0
2006;25-29;Hispanic;160.7
2006;25-29;Non-Hispanic white;49.1
2006;25-29;White;72.4
2006;30-34;All Races;55.3
2006;30-34;Asian or Pacific Islander;37.6
2006;30-34;Black;58.4
2006;30-34;Hispanic;122.9
2006;30-34;Non-Hispanic white;35.1
2006;30-34;White;55.5
2006;35-39;All Races;26.8
2006;35-39;Asian or Pacific Islander;29.7
2006;35-39;Black;27.3
2006;35-39;Hispanic;61.3
2006;35-39;Non-Hispanic white;17.9
2006;35-39;White;26.6
2006;40-44;All Races;6.5
2006;40-44;Asian or Pacific Islander;9.4
2006;40-44;Black;7.2
2006;40-44;Hispanic;14.8
2006;40-44;Non-Hispanic white;4.5
2006;40-44;White;6.3
2007;15-17;All Races;20.4
2007;15-17;Asian or Pacific Islander;6.7
2007;15-17;Black;34.8
2007;15-17;Hispanic;40.6
2007;15-17;Non-Hispanic white;10.9
2007;15-17;White;17.9
2007;15-19;All Races;36.5
2007;15-19;Asian or Pacific Islander;11.9
2007;15-19;Black;61.3
2007;15-19;Hispanic;65.4
2007;15-19;Non-Hispanic white;22.6
2007;15-19;White;32.3
2007;15-44;All Races;51.8
2007;15-44;Asian or Pacific Islander;23.9
2007;15-44;Black;71.4
2007;15-44;Hispanic;102.1
2007;15-44;Non-Hispanic white;33.8
2007;15-44;White;48.3
2007;18-19;All Races;61.9
2007;18-19;Asian or Pacific Islander;19.2
2007;18-19;Black;103.6
2007;18-19;Hispanic;109.2
2007;18-19;Non-Hispanic white;40.7
2007;18-19;White;55.1
2007;20-24;All Races;79.8
2007;20-24;Asian or Pacific Islander;27.1
2007;20-24;Black;125.3
2007;20-24;Hispanic;153.8
2007;20-24;Non-Hispanic white;53.4
2007;20-24;White;72.6
2007;25-29;All Races;76.9
2007;25-29;Asian or Pacific Islander;32.3
2007;25-29;Black;99.1
2007;25-29;Hispanic;161.1
2007;25-29;Non-Hispanic white;50.7
2007;25-29;White;74.3
2007;30-34;All Races;58.0
2007;30-34;Asian or Pacific Islander;36.9
2007;30-34;Black;59.9
2007;30-34;Hispanic;127.0
2007;30-34;Non-Hispanic white;37.2
2007;30-34;White;59.5
2007;35-39;All Races;28.7
2007;35-39;Asian or Pacific Islander;28.8
2007;35-39;Black;28.0
2007;35-39;Hispanic;64.9
2007;35-39;Non-Hispanic white;19.2
2007;35-39;White;29.1
2007;40-44;All Races;6.8
2007;40-44;Asian or Pacific Islander;9.9
2007;40-44;Black;7.4
2007;40-44;Hispanic;14.9
2007;40-44;Non-Hispanic white;4.6
2007;40-44;White;6.5
2008;15-17;All Races;20.1
2008;15-17;Asian or Pacific Islander;6.3
2008;15-17;Black;33.9
2008;15-17;Hispanic;39.4
2008;15-17;Non-Hispanic white;10.8
2008;15-17;White;17.8
2008;15-19;All Races;35.9
2008;15-19;Asian or Pacific Islander;11.4
2008;15-19;Black;59.7
2008;15-19;Hispanic;62.4
2008;15-19;Non-Hispanic white;22.5
2008;15-19;White;31.9
2008;15-44;All Races;51.8
2008;15-44;Asian or Pacific Islander;23.9
2008;15-44;Black;71.0
2008;15-44;Hispanic;97.3
2008;15-44;Non-Hispanic white;34.3
2008;15-44;White;48.4
2008;18-19;All Races;59.7
2008;18-19;Asian or Pacific Islander;18.4
2008;18-19;Black;98.4
2008;18-19;Hispanic;101.1
2008;18-19;Non-Hispanic white;39.7
2008;18-19;White;53.3
2008;20-24;All Races;78.1
2008;20-24;Asian or Pacific Islander;26.4
2008;20-24;Black;124.0
2008;20-24;Hispanic;141.0
2008;20-24;Non-Hispanic white;52.9
2008;20-24;White;70.9
2008;25-29;All Races;75.7
2008;25-29;Asian or Pacific Islander;33.5
2008;25-29;Black;97.0
2008;25-29;Hispanic;151.1
2008;25-29;Non-Hispanic white;50.8
2008;25-29;White;73.1
2008;30-34;All Races;58.8
2008;30-34;Asian or Pacific Islander;37.9
2008;30-34;Black;61.1
2008;30-34;Hispanic;121.6
2008;30-34;Non-Hispanic white;38.4
2008;30-34;White;60.0
2008;35-39;All Races;30.2
2008;35-39;Asian or Pacific Islander;30.3
2008;35-39;Black;28.5
2008;35-39;Hispanic;66.9
2008;35-39;Non-Hispanic white;20.4
2008;35-39;White;31.1
2008;40-44;All Races;7.5
2008;40-44;Asian or Pacific Islander;10.8
2008;40-44;Black;7.6
2008;40-44;Hispanic;16.2
2008;40-44;Non-Hispanic white;5.2
2008;40-44;White;7.3
2009;15-17;All Races;18.8
2009;15-17;Asian or Pacific Islander;5.9
2009;15-17;Black;31.1
2009;15-17;Hispanic;35.3
2009;15-17;Non-Hispanic white;10.4
2009;15-17;White;16.7
2009;15-19;All Races;34.0
2009;15-19;Asian or Pacific Islander;10.6
2009;15-19;Black;55.9
2009;15-19;Hispanic;56.7
2009;15-19;Non-Hispanic white;21.8
2009;15-19;White;30.4
2009;15-44;All Races;49.9
2009;15-44;Asian or Pacific Islander;23.6
2009;15-44;Black;68.7
2009;15-44;Hispanic;89.4
2009;15-44;Non-Hispanic white;33.6
2009;15-44;White;46.6
2009;18-19;All Races;56.3
2009;18-19;Asian or Pacific Islander;17.1
2009;18-19;Black;91.3
2009;18-19;Hispanic;90.9
2009;18-19;Non-Hispanic white;38.1
2009;18-19;White;50.5
2009;20-24;All Races;74.4
2009;20-24;Asian or Pacific Islander;25.3
2009;20-24;Black;119.5
2009;20-24;Hispanic;125.4
2009;20-24;Non-Hispanic white;51.4
2009;20-24;White;67.3
2009;25-29;All Races;73.0
2009;25-29;Asian or Pacific Islander;36.2
2009;25-29;Black;95.6
2009;25-29;Hispanic;139.4
2009;25-29;Non-Hispanic white;49.3
2009;25-29;White;69.7
2009;30-34;All Races;57.1
2009;30-34;Asian or Pacific Islander;39.2
2009;30-34;Black;60.3
2009;30-34;Hispanic;112.4
2009;30-34;Non-Hispanic white;37.9
2009;30-34;White;57.7
2009;35-39;All Races;29.7
2009;35-39;Asian or Pacific Islander;27.3
2009;35-39;Black;28.4
2009;35-39;Hispanic;63.7
2009;35-39;Non-Hispanic white;20.0
2009;35-39;White;30.6
2009;40-44;All Races;7.8
2009;40-44;Asian or Pacific Islander;9.9
2009;40-44;Black;7.6
2009;40-44;Hispanic;17.1
2009;40-44;Non-Hispanic white;5.5
2009;40-44;White;7.8
2010;15-17;All Races;16.8
2010;15-17;Asian or Pacific Islander;4.8
2010;15-17;Black;27.6
2010;15-17;Hispanic;30.8
2010;15-17;Non-Hispanic white;9.5
2010;15-17;White;15.1
2010;15-19;All Races;31.1
2010;15-19;Asian or Pacific Islander;9.2
2010;15-19;Black;50.8
2010;15-19;Hispanic;50.0
2010;15-19;Non-Hispanic white;20.3
2010;15-19;White;27.9
2010;15-44;All Races;47.5
2010;15-44;Asian or Pacific Islander;22.3
2010;15-44;Black;65.3
2010;15-44;Hispanic;80.6
2010;15-44;Non-Hispanic white;32.9
2010;15-44;White;44.5
2010;18-19;All Races;52.0
2010;18-19;Asian or Pacific Islander;15.4
2010;18-19;Black;83.6
2010;18-19;Hispanic;79.8
2010;18-19;Non-Hispanic white;36.0
2010;18-19;White;46.9
2010;20-24;All Races;70.0
2010;20-24;Asian or Pacific Islander;23.2
2010;20-24;Black;112.6
2010;20-24;Hispanic;110.5
2010;20-24;Non-Hispanic white;49.5
2010;20-24;White;63.4
2010;25-29;All Races;69.2
2010;25-29;Asian or Pacific Islander;35.0
2010;25-29;Black;92.5
2010;25-29;Hispanic;123.9
2010;25-29;Non-Hispanic white;48.0
2010;25-29;White;65.8
2010;30-34;All Races;56.3
2010;30-34;Asian or Pacific Islander;40.0
2010;30-34;Black;58.6
2010;30-34;Hispanic;105.8
2010;30-34;Non-Hispanic white;38.7
2010;30-34;White;56.8
2010;35-39;All Races;29.6
2010;35-39;Asian or Pacific Islander;26.6
2010;35-39;Black;27.8
2010;35-39;Hispanic;61.7
2010;35-39;Non-Hispanic white;20.2
2010;35-39;White;30.7
2010;40-44;All Races;8.0
2010;40-44;Asian or Pacific Islander;9.9
2010;40-44;Black;7.8
2010;40-44;Hispanic;16.3
2010;40-44;Non-Hispanic white;5.8
2010;40-44;White;8.1
2011;15-17;All Races;14.9
2011;15-17;Asian or Pacific Islander;4.4
2011;15-17;Black;24.7
2011;15-17;Hispanic;27.0
2011;15-17;Non-Hispanic white;8.6
2011;15-17;White;13.4
2011;15-19;All Races;28.4
2011;15-19;Asian or Pacific Islander;8.6
2011;15-19;Black;46.7
2011;15-19;Hispanic;44.7
2011;15-19;Non-Hispanic white;18.8
2011;15-19;White;25.5
2011;15-44;All Races;46.0
2011;15-44;Asian or Pacific Islander;22.4
2011;15-44;Black;63.7
2011;15-44;Hispanic;75.1
2011;15-44;Non-Hispanic white;32.3
2011;15-44;White;42.7
2011;18-19;All Races;48.2
2011;18-19;Asian or Pacific Islander;14.8
2011;18-19;Black;77.4
2011;18-19;Hispanic;71.7
2011;18-19;Non-Hispanic white;33.6
2011;18-19;White;43.4
2011;20-24;All Races;66.7
2011;20-24;Asian or Pacific Islander;22.3
2011;20-24;Black;106.9
2011;20-24;Hispanic;100.6
2011;20-24;Non-Hispanic white;47.8
2011;20-24;White;60.1
2011;25-29;All Races;67.8
2011;25-29;Asian or Pacific Islander;35.1
2011;25-29;Black;92.4
2011;25-29;Hispanic;116.2
2011;25-29;Non-Hispanic white;47.8
2011;25-29;White;63.8
2011;30-34;All Races;56.2
2011;30-34;Asian or Pacific Islander;42.3
2011;30-34;Black;59.1
2011;30-34;Hispanic;106.0
2011;30-34;Non-Hispanic white;39.2
2011;30-34;White;56.2
2011;35-39;All Races;29.9
2011;35-39;Asian or Pacific Islander;27.0
2011;35-39;Black;28.9
2011;35-39;Hispanic;58.0
2011;35-39;Non-Hispanic white;20.7
2011;35-39;White;30.6
2011;40-44;All Races;8.2
2011;40-44;Asian or Pacific Islander;9.9
2011;40-44;Black;7.8
2011;40-44;Hispanic;16.2
2011;40-44;Non-Hispanic white;6.0
2011;40-44;White;8.3
2012;15-17;All Races;13.7
2012;15-17;Asian or Pacific Islander;3.9
2012;15-17;Black;22.0
2012;15-17;Hispanic;24.5
2012;15-17;Non-Hispanic white;8.0
2012;15-17;White;12.4
2012;15-19;All Races;26.7
2012;15-19;Asian or Pacific Islander;8.1
2012;15-19;Black;43.4
2012;15-19;Hispanic;41.8
2012;15-19;Non-Hispanic white;17.8
2012;15-19;White;24.1
2012;15-44;All Races;45.3
2012;15-44;Asian or Pacific Islander;22.9
2012;15-44;Black;62.6
2012;15-44;Hispanic;72.6
2012;15-44;Non-Hispanic white;32.1
2012;15-44;White;42.1
2012;18-19;All Races;45.8
2012;18-19;Asian or Pacific Islander;14.2
2012;18-19;Black;73.2
2012;18-19;Hispanic;68.5
2012;18-19;Non-Hispanic white;32.1
2012;18-19;White;41.4
2012;20-24;All Races;64.7
2012;20-24;Asian or Pacific Islander;22.0
2012;20-24;Black;103.5
2012;20-24;Hispanic;96.5
2012;20-24;Non-Hispanic white;46.6
2012;20-24;White;58.3
2012;25-29;All Races;67.2
2012;25-29;Asian or Pacific Islander;35.2
2012;25-29;Black;91.2
2012;25-29;Hispanic;113.2
2012;25-29;Non-Hispanic white;47.8
2012;25-29;White;63.2
2012;30-34;All Races;56.3
2012;30-34;Asian or Pacific Islander;43.6
2012;30-34;Black;59.6
2012;30-34;Hispanic;103.9
2012;30-34;Non-Hispanic white;40.2
2012;30-34;White;56.3
2012;35-39;All Races;30.9
2012;35-39;Asian or Pacific Islander;30.1
2012;35-39;Black;29.7
2012;35-39;Hispanic;57.6
2012;35-39;Non-Hispanic white;21.8
2012;35-39;White;31.5
2012;40-44;All Races;8.5
2012;40-44;Asian or Pacific Islander;12.1
2012;40-44;Black;8.1
2012;40-44;Hispanic;16.5
2012;40-44;Non-Hispanic white;6.1
2012;40-44;White;8.5
2013;15-17;All Races;11.9
2013;15-17;Asian or Pacific Islander;3.5
2013;15-17;Black;19.0
2013;15-17;Hispanic;21.1
2013;15-17;Non-Hispanic white;7.0
2013;15-17;White;10.8
2013;15-19;All Races;24.0
2013;15-19;Asian or Pacific Islander;7.2
2013;15-19;Black;38.5
2013;15-19;Hispanic;37.6
2013;15-19;Non-Hispanic white;16.2
2013;15-19;White;21.9
2013;15-44;All Races;44.3
2013;15-44;Asian or Pacific Islander;21.8
2013;15-44;Black;61.7
2013;15-44;Hispanic;69.9
2013;15-44;Non-Hispanic white;31.7
2013;15-44;White;40.8
2013;18-19;All Races;42.1
2013;18-19;Asian or Pacific Islander;12.6
2013;18-19;Black;66.2
2013;18-19;Hispanic;63.0
2013;18-19;Non-Hispanic white;29.8
2013;18-19;White;38.6
2013;20-24;All Races;63.1
2013;20-24;Asian or Pacific Islander;20.7
2013;20-24;Black;100.7
2013;20-24;Hispanic;93.1
2013;20-24;Non-Hispanic white;45.6
2013;20-24;White;56.9
2013;25-29;All Races;66.7
2013;25-29;Asian or Pacific Islander;31.5
2013;25-29;Black;92.3
2013;25-29;Hispanic;112.0
2013;25-29;Non-Hispanic white;47.6
2013;25-29;White;62.5
2013;30-34;All Races;56.6
2013;30-34;Asian or Pacific Islander;44.1
2013;30-34;Black;60.6
2013;30-34;Hispanic;100.1
2013;30-34;Non-Hispanic white;40.9
2013;30-34;White;56.2
2013;35-39;All Races;31.8
2013;35-39;Asian or Pacific Islander;31.5
2013;35-39;Black;31.1
2013;35-39;Hispanic;56.8
2013;35-39;Non-Hispanic white;22.6
2013;35-39;White;32.3
2013;40-44;All Races;8.3
2013;40-44;Asian or Pacific Islander;12.6
2013;40-44;Black;8.4
2013;40-44;Hispanic;16.8
2013;40-44;Non-Hispanic white;6.1
2013;40-44;White;7.7
